<?xml version="1.0" encoding="utf-8"?>
<!-- Generator: Adobe Illustrator 16.0.0, SVG Export Plug-In . SVG Version: 6.00 Build 0)  -->
<!DOCTYPE svg PUBLIC "-//W3C//DTD SVG 1.1//EN" "http://www.w3.org/Graphics/SVG/1.1/DTD/svg11.dtd">
<svg version="1.1" id="Layer_2" xmlns="http://www.w3.org/2000/svg" xmlns:xlink="http://www.w3.org/1999/xlink" x="0px" y="0px"
	 width="80px" height="80px" viewBox="0 0 80 80" enable-background="new 0 0 80 80" xml:space="preserve">
<circle fill="#F26C4F" cx="40" cy="40" r="37"/>
<g id="Layer_2_1_">
	<path fill="#FFFFFF" stroke="#FFFFFF" stroke-miterlimit="10" d="M59.537,55H19.13V25.333h40.407V55z M21.119,28.63v23.188
		l11.594-11.594L21.119,28.63z M45.955,40.224l11.594,11.594V28.63L45.955,40.224z M22.426,53.125h33.815L44.647,41.531l-3.026,3.04
		c0,0-2.145,1.961-4.646-0.312c-2.5-2.273-2.898-2.728-2.898-2.728L22.426,53.125z M37.089,42.009c2.614,2.58,4.36,0.212,4.36,0.212
		l14.792-14.784H22.426C22.426,27.437,34.475,39.428,37.089,42.009z"/>
</g>
</svg>
